{
	"authors": [
		"Serpent OS Developers"
	],
	"copyright": "Copyright © 2020-2022 Serpent OS Developers",
	"description": "Build Stone Packages for Moss",
	"license": "Zlib",
	"version": "0.0.0",
	"name": "boulder",
	"targetPath": "bin",
	"dependencies": {
		"moss-config": {
			"path": "../moss-config"
		},
		"moss-core": {
			"path": "../moss-core"
		},
		"moss-format": {
			"path": "../moss-format"
		},
		"moss-deps": {
			"path": "../moss-deps"
		},
		"moss-fetcher": {
			"path": "../moss-fetcher"
		}
	},
	"dflags": ["-J", "data"]
}
